Color,Score,Red,Blue,Green,White,Black
1,4,0,3,0,6,3
1,5,0,3,0,7,0
4,4,7,0,0,0,0
0,5,3,0,7,0,0
3,3,5,3,3,0,3
3,4,3,0,0,3,6
3,5,0,0,0,3,7
4,3,3,3,5,3,0
4,4,6,0,3,0,3
3,4,0,0,0,0,7
4,5,7,0,0,0,3
0,3,0,5,3,3,3
0,4,3,3,6,0,0
0,4,0,0,7,0,0
1,3,3,0,3,3,5
1,4,0,0,0,7,0
2,3,3,3,0,5,3
2,4,0,6,3,3,0
2,5,0,7,3,0,0
